<?xml version="1.0" encoding="utf-8"?>
<!-- Generator: Adobe Illustrator 19.1.0, SVG Export Plug-In . SVG Version: 6.00 Build 0)  -->
<!DOCTYPE svg PUBLIC "-//W3C//DTD SVG 1.1//EN" "http://www.w3.org/Graphics/SVG/1.1/DTD/svg11.dtd">
<svg version="1.1" id="Ebene_1" xmlns="http://www.w3.org/2000/svg" xmlns:xlink="http://www.w3.org/1999/xlink" x="0px" y="0px"
	 width="240px" height="288px" viewBox="0 0 240 288" style="enable-background:new 0 0 240 288;" xml:space="preserve">
<style type="text/css">
	.st0{fill:#E7D800;}
	.st1{fill:#FFFFFF;}
</style>
<g>
	<polygon class="st0" points="240,0 0,0 0,239.3 23.6,239.3 23.6,288 65.5,239.3 240,239.3 	"/>
	<g>
		<g>
			<path class="st1" d="M98.9,123.7h-2.3c-0.4,0-0.6-0.2-0.6-0.6v-2.7c0-0.5-0.2-0.7-0.5-0.7c-0.2,0-0.5,0.1-0.8,0.4
				c-0.3,0.3-0.7,0.7-1.2,1.1c-0.7,0.6-1.4,1.2-2.2,1.7s-1.9,0.7-3.4,0.7s-2.8-0.3-4.1-0.7c-1.2-0.5-2.3-1.2-3.2-2.1
				c-0.9-0.9-1.6-2-2.2-3.2c-0.5-1.3-0.8-2.7-0.8-4.2v-7.2c0-1.5,0.3-2.8,0.8-4.1c0.5-1.2,1.2-2.3,2.1-3.2c0.9-0.9,1.9-1.6,3.1-2.1
				c1.2-0.5,2.5-0.8,3.9-0.8c0.8,0,1.4,0.1,2,0.2c0.6,0.1,1,0.3,1.3,0.5c1.1,0.7,2,1.5,2.6,2.1c0.6,0.7,1,1,1.4,1
				c0.3,0,0.5-0.2,0.5-0.7V85c0-0.4,0.2-0.6,0.6-0.6h3c0.4,0,0.6,0.2,0.6,0.6v38C99.5,123.4,99.3,123.7,98.9,123.7z M95.3,106.2
				c0-0.9-0.2-1.7-0.5-2.5c-0.4-0.8-0.8-1.5-1.4-2.1c-0.6-0.6-1.3-1.1-2.1-1.4c-0.8-0.4-1.7-0.5-2.6-0.5c-1,0-1.9,0.2-2.7,0.5
				c-0.8,0.4-1.5,0.8-2.1,1.4s-1,1.3-1.4,2.1c-0.3,0.8-0.5,1.7-0.5,2.6v7.2c0,0.9,0.2,1.8,0.5,2.6s0.8,1.5,1.4,2.1
				c0.6,0.6,1.3,1.1,2.1,1.4c0.8,0.4,1.7,0.5,2.6,0.5c0.9,0,1.8-0.2,2.6-0.5c0.8-0.4,1.6-0.8,2.1-1.4c0.6-0.6,1.1-1.3,1.4-2.1
				c0.4-0.8,0.5-1.7,0.5-2.6L95.3,106.2L95.3,106.2z"/>
			<path class="st1" d="M127.3,110H111c-0.4,0-0.6,0.2-0.6,0.6v3.4c0,0.9,0.2,1.8,0.5,2.6s0.8,1.5,1.4,2.1c0.6,0.6,1.3,1.1,2.1,1.4
				c0.8,0.4,1.7,0.5,2.6,0.5c1.6,0,2.9-0.6,4.2-1.7c0.7-0.6,1.2-1.1,1.5-1.5c0.3-0.4,0.6-0.6,0.8-0.6c0.1,0,0.2,0,0.3,0.1l2.6,1.3
				c0.3,0.1,0.4,0.2,0.4,0.5c0,0.5-0.2,1.1-0.7,1.7c-0.5,0.6-1.1,1.2-2,1.8s-1.9,1-3.1,1.4c-1.2,0.4-2.5,0.6-4,0.6
				c-3.4,0-6-0.9-7.9-2.8c-1.9-1.9-2.9-4.3-2.9-7.5v-8.4c0-1.2,0.3-2.4,0.8-3.6c0.5-1.2,1.2-2.3,2.2-3.3c2.1-2.2,4.7-3.3,7.9-3.3
				c1.5,0,2.9,0.3,4.3,0.8c1.3,0.6,2.5,1.3,3.5,2.2s1.8,2,2.3,3.2c0.6,1.2,0.8,2.5,0.8,3.8v3.8C127.9,109.8,127.7,110,127.3,110z
				 M123.7,105.6c0-0.9-0.2-1.7-0.5-2.5c-0.4-0.8-0.8-1.5-1.4-2.1c-0.6-0.6-1.3-1.1-2.1-1.4c-0.8-0.4-1.7-0.5-2.6-0.5
				c-1,0-1.9,0.2-2.7,0.5c-0.8,0.4-1.5,0.8-2.1,1.4s-1,1.3-1.4,2.1c-0.3,0.8-0.5,1.7-0.5,2.6v0.9c0,0.4,0.2,0.6,0.6,0.6h12.1
				c0.4,0,0.6-0.2,0.6-0.6L123.7,105.6L123.7,105.6z"/>
			<path class="st1" d="M138.4,99.8c-0.9,0.7-1.4,1.7-1.4,3c0,1.3,0.5,2.3,1.5,3c1,0.7,2.6,1.3,4.8,1.7c1.8,0.4,3.4,0.7,4.8,1.1
				c1.4,0.4,2.6,0.8,3.5,1.4c0.9,0.5,1.7,1.2,2.2,2.1c0.5,0.8,0.8,1.9,0.8,3.2c0,2.7-0.9,4.8-2.7,6.5c-1.8,1.7-4.2,2.5-7.3,2.5h-1.9
				c-1.5,0-2.8-0.2-4-0.6c-1.2-0.4-2.2-0.8-3-1.4c-0.8-0.6-1.5-1.2-1.9-1.8c-0.5-0.6-0.7-1.2-0.7-1.7c0-0.2,0.1-0.3,0.4-0.4l2.4-1.2
				c0.1,0,0.2-0.1,0.3-0.1s0.3,0.1,0.5,0.3c0.4,0.5,0.8,0.9,1.2,1.3c0.4,0.4,0.8,0.8,1.3,1.1s1,0.6,1.5,0.8c0.6,0.2,1.2,0.3,2,0.3
				h1.9c1.8,0,3.2-0.4,4.2-1.3c1-0.9,1.6-2,1.6-3.2c0-2.2-2-3.7-6.1-4.6c-1.8-0.4-3.4-0.7-4.8-1.1c-1.4-0.3-2.5-0.8-3.5-1.3
				s-1.7-1.2-2.2-2.1c-0.5-0.8-0.7-1.9-0.7-3.3c0-2.6,0.9-4.7,2.6-6.3c1.8-1.6,4.1-2.4,7-2.4h1.9c1.4,0,2.7,0.2,3.9,0.6
				s2.2,0.8,3,1.4c0.9,0.5,1.5,1.1,2,1.7s0.7,1.2,0.7,1.6c0,0.2-0.1,0.3-0.4,0.4l-2.4,1.2c-0.1,0-0.2,0.1-0.3,0.1s-0.3-0.1-0.5-0.3
				c-0.9-1-1.7-1.8-2.6-2.4c-0.9-0.6-2-1-3.4-1h-1.9C140.8,98.7,139.4,99.1,138.4,99.8z"/>
			<path class="st1" d="M166.8,86.5c0,0.7-0.3,1.4-0.8,2s-1.2,0.8-2,0.8s-1.4-0.3-1.9-0.8s-0.8-1.2-0.8-2c0-0.7,0.3-1.4,0.8-1.9
				s1.2-0.8,1.9-0.8c0.8,0,1.5,0.3,2,0.8C166.6,85,166.8,85.7,166.8,86.5z M165.5,123.7h-3c-0.4,0-0.6-0.2-0.6-0.6V96.7
				c0-0.4,0.2-0.6,0.6-0.6h3c0.4,0,0.6,0.2,0.6,0.6V123C166.1,123.4,165.9,123.7,165.5,123.7z"/>
			<path class="st1" d="M195.3,125.1c1.5,1.4,2.2,3.1,2.2,5.3c0,1.1-0.2,2.1-0.6,3c-0.4,0.9-0.9,1.7-1.7,2.3
				c-0.7,0.6-1.6,1.1-2.5,1.5c-1,0.4-2,0.6-3.2,0.6h-8.8c-1.1,0-2.2-0.2-3.2-0.6c-1-0.4-1.8-0.9-2.5-1.5s-1.2-1.4-1.6-2.3
				s-0.6-1.8-0.6-2.8c0-0.8,0.1-1.6,0.4-2.4c0.3-0.7,0.7-1.4,1.2-1.8c0.8-0.8,1.4-1.4,1.9-1.7c0.5-0.4,0.7-0.6,0.7-0.8
				c0-0.3-0.2-0.8-0.6-1.4c-0.4-0.6-0.6-1.4-0.6-2.4c0-0.6,0.1-1.2,0.2-1.7c0.2-0.5,0.3-0.9,0.5-1.3c0.2-0.4,0.4-0.6,0.5-0.9
				c0.2-0.2,0.2-0.4,0.2-0.6c0-0.1-0.3-0.5-0.8-1.1s-1.3-1.5-2.4-2.7c-0.3-0.4-0.6-1-0.9-1.9s-0.4-1.9-0.4-3.1v-0.6
				c0-1.4,0.3-2.7,0.8-4c0.5-1.3,1.3-2.3,2.2-3.2c0.9-0.9,2-1.6,3.3-2.2c1.2-0.5,2.6-0.8,4-0.8c1.5,0,2.7,0.2,3.4,0.7
				c1.2,0.7,2,1.5,2.6,2.2s1,1,1.4,1c0.3,0,0.5-0.2,0.5-0.7v-2.6c0-0.4,0.2-0.6,0.6-0.6h2.3c0.4,0,0.6,0.2,0.6,0.6v10.2
				c0,1.5-0.3,2.8-0.8,4c-0.5,1.2-1.3,2.3-2.2,3.2c-1,0.9-2.1,1.7-3.4,2.2s-2.8,0.8-4.4,0.8c-0.3,0-0.7,0-1,0s-0.7-0.1-1-0.1
				c-1.5,0.8-2.3,1.8-2.3,3c0,1.3,0.7,2.4,2.2,3h7.9C191.9,123,193.8,123.7,195.3,125.1z M190.4,106.2c0-0.9-0.2-1.7-0.5-2.5
				c-0.4-0.8-0.8-1.5-1.4-2.1s-1.3-1.1-2.1-1.4c-0.8-0.4-1.7-0.5-2.6-0.5c-1,0-1.8,0.2-2.7,0.5c-0.8,0.4-1.5,0.8-2.1,1.4
				s-1,1.3-1.4,2.1c-0.3,0.8-0.5,1.7-0.5,2.6v0.6c0,0.9,0.2,1.8,0.5,2.6s0.8,1.5,1.4,2.1c0.6,0.6,1.3,1.1,2.1,1.4
				c0.8,0.4,1.7,0.5,2.6,0.5s1.8-0.2,2.6-0.5c0.8-0.4,1.5-0.8,2.1-1.4c0.6-0.6,1.1-1.3,1.4-2.1c0.4-0.8,0.5-1.7,0.5-2.6v-0.7H190.4z
				 M192.2,133c0.7-0.7,1.1-1.6,1.1-2.7c0-1.1-0.4-2-1.1-2.7s-1.6-1.1-2.7-1.1h-8.8c-1,0-1.9,0.4-2.6,1.1c-0.7,0.7-1.1,1.6-1.1,2.7
				c0,1.1,0.4,2,1.1,2.7s1.6,1.1,2.6,1.1h8.8C190.6,134.1,191.5,133.8,192.2,133z"/>
			<path class="st1" d="M223.7,123.7h-3c-0.4,0-0.6-0.2-0.6-0.6v-16.9c0-0.9-0.2-1.7-0.5-2.5c-0.4-0.8-0.8-1.5-1.4-2.1
				s-1.3-1.1-2.1-1.4c-0.8-0.4-1.7-0.5-2.7-0.5s-1.9,0.2-2.7,0.5c-0.8,0.4-1.5,0.8-2.1,1.4s-1.1,1.3-1.4,2.1
				c-0.3,0.8-0.5,1.7-0.5,2.6V123c0,0.4-0.2,0.6-0.6,0.6h-3c-0.4,0-0.6-0.2-0.6-0.6V96.7c0-0.4,0.2-0.6,0.6-0.6h2.3
				c0.4,0,0.6,0.2,0.6,0.6v2.5c0,0.5,0.2,0.7,0.5,0.7c0.2,0,0.5-0.1,0.8-0.4c0.3-0.3,0.7-0.6,1.1-1c0.7-0.6,1.4-1.1,2.2-1.6
				c0.7-0.5,1.9-0.7,3.4-0.7s2.8,0.2,4.1,0.7c1.3,0.5,2.4,1.2,3.3,2.1s1.7,2,2.2,3.2c0.5,1.3,0.8,2.6,0.8,4.1V123
				C224.3,123.4,224.1,123.7,223.7,123.7z"/>
			<path class="st1" d="M114.8,173.7h-3c-0.4,0-0.6-0.2-0.6-0.6v-16.8c0-0.9-0.2-1.7-0.5-2.5c-0.4-0.8-0.8-1.5-1.4-2.1
				c-0.6-0.6-1.2-1.1-2-1.5c-0.7-0.4-1.5-0.5-2.2-0.5s-1.4,0.2-2.1,0.6c-0.7,0.4-1.4,0.9-1.9,1.5c-0.6,0.6-1,1.3-1.4,2.1
				c-0.4,0.8-0.5,1.6-0.5,2.5V173c0,0.4-0.2,0.6-0.6,0.6h-3c-0.4,0-0.6-0.2-0.6-0.6v-16.7c0-0.9-0.2-1.7-0.5-2.5
				c-0.4-0.8-0.8-1.5-1.4-2.1c-0.6-0.6-1.2-1.1-2-1.5c-0.7-0.4-1.5-0.5-2.2-0.5s-1.5,0.2-2.2,0.5c-0.7,0.4-1.4,0.8-1.9,1.5
				c-0.6,0.6-1,1.3-1.4,2.1c-0.3,0.8-0.5,1.6-0.5,2.5V173c0,0.4-0.2,0.6-0.6,0.6h-3c-0.4,0-0.6-0.2-0.6-0.6v-26.3
				c0-0.4,0.2-0.6,0.6-0.6h2.3c0.4,0,0.6,0.2,0.6,0.6v2.5c0,0.5,0.1,0.7,0.4,0.7c0.2,0,0.5-0.1,0.8-0.4c0.3-0.3,0.7-0.6,1.3-1.1
				c0.8-0.6,1.5-1.1,2.2-1.6s1.7-0.7,3-0.7c1.6,0,3,0.5,4.2,1.4c0.9,0.7,1.6,1.4,2,1.8c0.4,0.5,0.7,0.7,0.9,0.7s0.5-0.2,0.9-0.7
				s1.1-1,1.9-1.7c1.3-1,3-1.6,5.3-1.6c1.5,0,2.9,0.2,4.2,0.7s2.4,1.2,3.3,2.1c0.9,0.9,1.6,2,2.1,3.2s0.8,2.6,0.8,4.1V173
				C115.4,173.5,115.2,173.7,114.8,173.7z"/>
			<path class="st1" d="M142.1,171.5c-2,1.9-4.6,2.8-8,2.8c-3.3,0-6-0.9-7.9-2.8s-2.9-4.3-2.9-7.5v-8.4c0-3.1,1-5.6,2.9-7.4
				s4.6-2.7,7.9-2.7c1.7,0,3.2,0.3,4.5,0.7c1.3,0.5,2.5,1.2,3.4,2.1c1,0.9,1.7,2,2.2,3.2c0.5,1.2,0.8,2.6,0.8,4.1v8.4
				C145.1,167.1,144.1,169.6,142.1,171.5z M131.8,138.5c0,0.8-0.3,1.5-0.8,2s-1.2,0.8-2,0.8s-1.4-0.3-2-0.8c-0.5-0.5-0.8-1.2-0.8-2
				s0.3-1.4,0.8-1.9s1.2-0.7,2-0.7s1.4,0.3,2,0.7C131.5,137.1,131.8,137.7,131.8,138.5z M140.9,155.6c0-0.9-0.2-1.7-0.5-2.5
				c-0.4-0.8-0.8-1.5-1.4-2.1c-0.6-0.6-1.3-1.1-2.1-1.4c-0.8-0.4-1.7-0.5-2.6-0.5c-1,0-1.9,0.2-2.7,0.5c-0.8,0.4-1.5,0.8-2.1,1.4
				s-1.1,1.3-1.4,2.1c-0.3,0.8-0.5,1.7-0.5,2.6v8.4c0,0.9,0.2,1.8,0.5,2.6s0.8,1.5,1.4,2.1c0.6,0.6,1.3,1.1,2.1,1.4
				c0.8,0.4,1.7,0.5,2.6,0.5c0.9,0,1.8-0.2,2.6-0.5c0.8-0.4,1.6-0.8,2.1-1.4c0.6-0.6,1.1-1.3,1.4-2.1c0.4-0.8,0.5-1.7,0.5-2.6
				L140.9,155.6L140.9,155.6z M142,138.5c0,0.7-0.3,1.4-0.8,2s-1.2,0.8-2,0.8s-1.4-0.3-1.9-0.8s-0.8-1.2-0.8-2s0.3-1.4,0.8-1.9
				s1.1-0.7,1.9-0.7c0.8,0,1.5,0.3,2,0.8C141.7,137.1,142,137.8,142,138.5z"/>
			<path class="st1" d="M174,167.5c-0.5,1.2-1.3,2.3-2.2,3.2c-0.9,0.9-2,1.6-3.3,2.1s-2.6,0.7-4.1,0.7c-0.8,0-1.5-0.1-2.1-0.2
				c-0.6-0.1-1-0.3-1.4-0.5c-1.1-0.7-2-1.4-2.6-2.1s-1-1-1.4-1c-0.3,0-0.5,0.2-0.5,0.7v2.6c0,0.4-0.2,0.6-0.6,0.6h-2.3
				c-0.4,0-0.6-0.2-0.6-0.6v-38c0-0.4,0.2-0.6,0.6-0.6h3c0.4,0,0.6,0.2,0.6,0.6v14.1c0,0.5,0.1,0.7,0.4,0.7c0.2,0,0.5-0.1,0.8-0.4
				s0.7-0.6,1.1-1c0.7-0.6,1.4-1.1,2.2-1.6c0.7-0.5,1.8-0.7,3.3-0.7c2.8,0,5,1,6.9,2.9c2,2.1,3,4.6,3,7.3v7.2
				C174.8,164.9,174.6,166.3,174,167.5z M170.6,156.3c0-0.9-0.2-1.7-0.5-2.5c-0.4-0.8-0.8-1.5-1.4-2.1c-0.6-0.6-1.3-1.1-2.1-1.4
				c-0.8-0.4-1.7-0.5-2.7-0.5s-1.9,0.2-2.7,0.5c-0.8,0.4-1.5,0.8-2.1,1.4c-0.6,0.6-1.1,1.3-1.4,2.1s-0.5,1.7-0.5,2.6v7.2
				c0,0.9,0.2,1.8,0.5,2.6s0.8,1.5,1.4,2.1c0.6,0.6,1.3,1.1,2.1,1.4c0.8,0.4,1.7,0.5,2.7,0.5c0.9,0,1.8-0.2,2.7-0.5
				c0.8-0.4,1.6-0.8,2.1-1.4c0.6-0.6,1.1-1.3,1.4-2.1c0.4-0.8,0.5-1.7,0.5-2.6V156.3z"/>
			<path class="st1" d="M202.9,160.1h-16.3c-0.4,0-0.6,0.2-0.6,0.6v3.4c0,0.9,0.2,1.8,0.5,2.6s0.8,1.5,1.4,2.1
				c0.6,0.6,1.3,1.1,2.1,1.4c0.8,0.4,1.7,0.5,2.6,0.5c1.6,0,2.9-0.6,4.2-1.7c0.7-0.6,1.2-1.1,1.5-1.5s0.6-0.6,0.8-0.6
				c0.1,0,0.2,0,0.3,0.1l2.6,1.3c0.3,0.1,0.4,0.2,0.4,0.5c0,0.5-0.2,1.1-0.7,1.7s-1.1,1.2-2,1.8c-0.9,0.6-1.9,1-3.1,1.4
				c-1.2,0.4-2.5,0.6-4,0.6c-3.4,0-6-0.9-7.9-2.8s-2.9-4.3-2.9-7.5v-8.4c0-1.2,0.3-2.4,0.8-3.6s1.2-2.3,2.2-3.3
				c2.1-2.2,4.7-3.3,7.9-3.3c1.5,0,2.9,0.3,4.3,0.8c1.3,0.6,2.5,1.3,3.5,2.2s1.8,2,2.3,3.2c0.6,1.2,0.8,2.5,0.8,3.8v3.8
				C203.5,159.9,203.3,160.1,202.9,160.1z M199.3,155.6c0-0.9-0.2-1.7-0.5-2.5c-0.4-0.8-0.8-1.5-1.4-2.1s-1.3-1.1-2.1-1.4
				c-0.8-0.4-1.7-0.5-2.6-0.5c-1,0-1.9,0.2-2.7,0.5c-0.8,0.4-1.5,0.8-2.1,1.4s-1,1.3-1.4,2.1c-0.3,0.8-0.5,1.7-0.5,2.6v0.9
				c0,0.4,0.2,0.6,0.6,0.6h12.1c0.4,0,0.6-0.2,0.6-0.6V155.6z"/>
			<path class="st1" d="M214.9,173.7h-3c-0.4,0-0.6-0.2-0.6-0.6V135c0-0.4,0.2-0.6,0.6-0.6h3c0.4,0,0.6,0.2,0.6,0.6v38
				C215.5,173.5,215.3,173.7,214.9,173.7z"/>
		</g>
		<g>
			<path class="st1" d="M102.1,216c-0.6,1.5-1.5,2.7-2.5,3.8c-1.1,1.1-2.4,1.9-4,2.4c-1.6,0.6-3.3,0.8-5.2,0.8s-3.6-0.3-5.2-0.8
				c-1.6-0.6-2.9-1.4-4-2.4c-1.1-1.1-2-2.3-2.6-3.8s-0.9-3.1-0.9-4.9v-8.3c0-1.8,0.3-3.4,0.9-4.9c0.6-1.5,1.5-2.7,2.6-3.7
				s2.4-1.8,4-2.4s3.3-0.9,5.2-0.9s3.6,0.3,5.2,0.9c1.6,0.6,2.9,1.4,4,2.4s1.9,2.3,2.5,3.7c0.6,1.5,0.9,3.1,0.9,4.9v8.3
				C103,212.9,102.7,214.5,102.1,216z M95.3,202.8c0-1.3-0.5-2.5-1.4-3.4c-0.9-0.9-2.1-1.4-3.5-1.4c-1.5,0-2.6,0.5-3.6,1.4
				c-0.9,0.9-1.4,2.1-1.4,3.4v8.3c0,1.3,0.5,2.5,1.4,3.4s2.1,1.4,3.6,1.4c1.4,0,2.5-0.5,3.5-1.4c0.9-0.9,1.4-2.1,1.4-3.4V202.8z"/>
			<path class="st1" d="M133.6,222.4h-5.7c-0.2,0-0.4-0.1-0.5-0.2c-0.1-0.1-0.2-0.3-0.2-0.5s-0.1-0.3-0.2-0.5
				c-0.1-0.1-0.2-0.2-0.3-0.2c-0.4,0-1,0.2-1.9,0.7c-0.9,0.4-2,0.7-3.6,0.7c-1.8,0-3.4-0.3-4.9-0.9c-1.5-0.6-2.8-1.4-3.8-2.4
				c-1.1-1-1.9-2.3-2.5-3.8s-0.9-3.1-0.9-4.8v-18.2c0-0.4,0.2-0.7,0.7-0.7h6.4c0.4,0,0.7,0.2,0.7,0.7v18.2c0,1.4,0.5,2.5,1.4,3.5
				c0.9,0.9,2.1,1.4,3.5,1.4s2.6-0.5,3.5-1.4s1.4-2.1,1.4-3.4v-18.2c0-0.4,0.2-0.7,0.7-0.7h6.3c0.4,0,0.7,0.2,0.7,0.7v29.5
				C134.2,222.1,134,222.4,133.6,222.4z"/>
			<path class="st1" d="M156.5,222.9c-0.2,0.1-0.6,0.1-1.1,0.1c-1.4,0-3-0.3-4.7-1s-3.1-1.5-4.2-2.6c-2.2-2.1-3.2-4.8-3.2-8.3v-11.8
				c0-0.4-0.2-0.7-0.7-0.7h-3.5c-0.4,0-0.7-0.2-0.7-0.7l0.1-3.6l8-8.4l0.5-0.2h3.3c0.4,0,0.7,0.2,0.7,0.7v4.4c0,0.5,0.2,0.7,0.7,0.7
				h4.5c0.4,0,0.7,0.2,0.7,0.7v5.7c0,0.5-0.2,0.7-0.7,0.7h-4.5c-0.4,0-0.7,0.2-0.7,0.7v11.8c0,1,0.3,2,0.9,2.8
				c0.6,0.8,1.3,1.3,2.2,1.5s1.6,0.4,2.1,0.4c0.4,0.1,0.6,0.3,0.6,0.7v5.8C156.8,222.7,156.7,222.9,156.5,222.9z"/>
			<path class="st1" d="M170.8,222.4h-6.3c-0.5,0-0.7-0.2-0.7-0.7v-41.1c0-0.4,0.2-0.7,0.7-0.7h6.3c0.4,0,0.7,0.2,0.7,0.7v41.1
				C171.4,222.1,171.2,222.4,170.8,222.4z"/>
			<path class="st1" d="M202.8,208.9h-16.1c-0.4,0-0.7,0.2-0.7,0.7v1.5c0,1.3,0.5,2.5,1.4,3.4s2.1,1.4,3.5,1.4c1,0,1.8-0.3,2.5-0.8
				s1.3-1.3,1.9-2.4c0.4-0.9,0.7-1.3,1-1.3c0.1,0,0.2,0,0.3,0.1l5.9,2.9c0.3,0.1,0.4,0.3,0.4,0.5c0,0.4-0.3,1-0.8,1.9
				s-1.4,1.9-2.5,3.1c-2,2.1-4.9,3.1-8.6,3.1c-1.9,0-3.6-0.3-5.2-0.8c-1.6-0.6-2.9-1.4-4-2.4c-1.1-1.1-2-2.3-2.6-3.8
				s-0.9-3.1-0.9-4.9v-8.3c0-1,0.2-2.1,0.5-3.2s0.8-2.1,1.4-3c1.2-1.8,2.8-3.3,4.6-4.2c1.9-1,3.9-1.5,6.1-1.5s4.2,0.5,6.1,1.5
				s3.4,2.4,4.6,4.2c0.6,0.9,1.1,1.9,1.4,3s0.5,2.2,0.5,3.2v5.5C203.4,208.7,203.2,208.9,202.8,208.9z M195.5,201.8
				c0-0.4-0.1-0.9-0.4-1.3s-0.6-0.9-1.1-1.2c-0.5-0.4-1-0.7-1.5-0.9c-0.6-0.2-1.1-0.3-1.7-0.3c-1.3,0-2.4,0.4-3.4,1.2
				c-0.9,0.8-1.4,1.7-1.4,2.7c0,0.4,0.2,0.6,0.7,0.6h8.1C195.3,202.4,195.5,202.2,195.5,201.8z"/>
			<path class="st1" d="M224.7,222.9c-0.2,0.1-0.6,0.1-1.1,0.1c-1.4,0-3-0.3-4.7-1s-3.1-1.5-4.2-2.6c-2.2-2.1-3.2-4.8-3.2-8.3v-11.8
				c0-0.4-0.2-0.7-0.7-0.7h-3.5c-0.4,0-0.7-0.2-0.7-0.7l0.1-3.6l8-8.4l0.5-0.2h3.3c0.4,0,0.7,0.2,0.7,0.7v4.4c0,0.5,0.2,0.7,0.7,0.7
				h4.5c0.4,0,0.7,0.2,0.7,0.7v5.7c0,0.5-0.2,0.7-0.7,0.7h-4.5c-0.4,0-0.7,0.2-0.7,0.7v11.8c0,1,0.3,2,0.9,2.8s1.3,1.3,2.2,1.5
				c0.9,0.2,1.6,0.4,2.1,0.4c0.4,0.1,0.6,0.3,0.6,0.7v5.8C225,222.7,224.9,222.9,224.7,222.9z"/>
		</g>
	</g>
</g>
</svg>
