<?xml version="1.0" encoding="utf-8"?>
<!-- Generator: Adobe Illustrator 19.1.0, SVG Export Plug-In . SVG Version: 6.00 Build 0)  -->
<!DOCTYPE svg PUBLIC "-//W3C//DTD SVG 1.1//EN" "http://www.w3.org/Graphics/SVG/1.1/DTD/svg11.dtd">
<svg version="1.1" id="Ebene_1" xmlns="http://www.w3.org/2000/svg" xmlns:xlink="http://www.w3.org/1999/xlink" x="0px" y="0px"
	 width="40px" height="75px" viewBox="0 0 40 75" style="enable-background:new 0 0 40 75;" xml:space="preserve">
<style type="text/css">
	.st0{fill:#FFFFFF;}
</style>
<g>
	<g>
		<polygon class="st0" points="0.9,75 40,37.6 0.7,0 0,0.7 38.6,37.6 0.2,74.3 		"/>
	</g>
</g>
<g>
	<g>
		<polygon class="st0" points="0.9,75 40,37.6 0.7,0 0,0.7 38.6,37.6 0.2,74.3 		"/>
	</g>
</g>
</svg>
